(export (version D)
  (design
    (source /home/jacek/workspace/hw/lab-power-supply-with-pc-control/isolated-uart/isolated-uart.sch)
    (date "Fri 20 Aug 2021 06:51:54 PM IST")
    (tool "Eeschema 5.1.10")
    (sheet (number 1) (name /) (tstamps /)
      (title_block
        (title)
        (company)
        (rev)
        (date)
        (source isolated-uart.sch)
        (comment (number 1) (value ""))
        (comment (number 2) (value ""))
        (comment (number 3) (value ""))
        (comment (number 4) (value "")))))
  (components
    (comp (ref R1)
      (value 100R)
      (footprint Resistor_SMD:R_0603_1608Metric_Pad0.98x0.95mm_HandSolder)
      (datasheet ~)
      (libsource (lib Device) (part R) (description Resistor))
      (sheetpath (names /) (tstamps /))
      (tstamp 61724FE7))
    (comp (ref R2)
      (value 100R)
      (footprint Resistor_SMD:R_0603_1608Metric_Pad0.98x0.95mm_HandSolder)
      (datasheet ~)
      (libsource (lib Device) (part R) (description Resistor))
      (sheetpath (names /) (tstamps /))
      (tstamp 6172D07F))
    (comp (ref U4)
      (value MCP2200-I-SO)
      (footprint Package_SO:SOIC-20W_7.5x12.8mm_P1.27mm)
      (datasheet http://ww1.microchip.com/downloads/en/DeviceDoc/200022228D.pdf)
      (libsource (lib Interface_USB) (part MCP2200-I-SO) (description "USB 2.0 to UART Protocol Converter with GPIO, SOIC-20"))
      (sheetpath (names /) (tstamps /))
      (tstamp 61757984))
    (comp (ref J1)
      (value USB_B)
      (footprint Connector_USB:USB_B_Lumberg_2411_02_Horizontal)
      (datasheet " ~")
      (libsource (lib Connector) (part USB_B) (description "USB Type B connector"))
      (sheetpath (names /) (tstamps /))
      (tstamp 6176607D))
    (comp (ref C2)
      (value "min 220nF/10V")
      (footprint Capacitor_SMD:C_0603_1608Metric_Pad1.08x0.95mm_HandSolder)
      (datasheet ~)
      (libsource (lib Device) (part C) (description "Unpolarized capacitor"))
      (sheetpath (names /) (tstamps /))
      (tstamp 61789671))
    (comp (ref C1)
      (value "min 220nF/10V")
      (footprint Capacitor_SMD:C_0603_1608Metric_Pad1.08x0.95mm_HandSolder)
      (datasheet ~)
      (libsource (lib Device) (part C) (description "Unpolarized capacitor"))
      (sheetpath (names /) (tstamps /))
      (tstamp 617ADDD3))
    (comp (ref C3)
      (value 27pF/10V)
      (footprint Capacitor_SMD:C_0603_1608Metric_Pad1.08x0.95mm_HandSolder)
      (datasheet ~)
      (libsource (lib Device) (part C) (description "Unpolarized capacitor"))
      (sheetpath (names /) (tstamps /))
      (tstamp 617D19A4))
    (comp (ref C4)
      (value 27pF/10V)
      (footprint Capacitor_SMD:C_0603_1608Metric_Pad1.08x0.95mm_HandSolder)
      (datasheet ~)
      (libsource (lib Device) (part C) (description "Unpolarized capacitor"))
      (sheetpath (names /) (tstamps /))
      (tstamp 617D22F4))
    (comp (ref R4)
      (value 10k)
      (footprint Resistor_SMD:R_0603_1608Metric_Pad0.98x0.95mm_HandSolder)
      (datasheet ~)
      (libsource (lib Device) (part R) (description Resistor))
      (sheetpath (names /) (tstamps /))
      (tstamp 61861E5F))
    (comp (ref R6)
      (value 10k/0.125W)
      (footprint Resistor_SMD:R_0603_1608Metric_Pad0.98x0.95mm_HandSolder)
      (datasheet ~)
      (libsource (lib Device) (part R) (description Resistor))
      (sheetpath (names /) (tstamps /))
      (tstamp 618C2723))
    (comp (ref U1)
      (value ADuM1201AR)
      (footprint Package_SO:SOIC-8_3.9x4.9mm_P1.27mm)
      (datasheet https://www.analog.com/media/en/technical-documentation/data-sheets/ADuM1200_1201.pdf)
      (libsource (lib Isolator) (part ADuM1201AR) (description "Dual-channel digital isolator, bidirectional communication, 3V/5V level translation, SOIC-8"))
      (sheetpath (names /) (tstamps /))
      (tstamp 617153B4))
    (comp (ref R3)
      (value 100R)
      (footprint Resistor_SMD:R_0603_1608Metric_Pad0.98x0.95mm_HandSolder)
      (datasheet ~)
      (libsource (lib Device) (part R) (description Resistor))
      (sheetpath (names /) (tstamps /))
      (tstamp 611E3D19))
    (comp (ref R5)
      (value 100R)
      (footprint Resistor_SMD:R_0603_1608Metric_Pad0.98x0.95mm_HandSolder)
      (datasheet ~)
      (libsource (lib Device) (part R) (description Resistor))
      (sheetpath (names /) (tstamps /))
      (tstamp 611E3D1F))
    (comp (ref U2)
      (value ADuM1201AR)
      (footprint Package_SO:SOIC-8_3.9x4.9mm_P1.27mm)
      (datasheet https://www.analog.com/media/en/technical-documentation/data-sheets/ADuM1200_1201.pdf)
      (libsource (lib Isolator) (part ADuM1201AR) (description "Dual-channel digital isolator, bidirectional communication, 3V/5V level translation, SOIC-8"))
      (sheetpath (names /) (tstamps /))
      (tstamp 611E3D30))
    (comp (ref R12)
      (value 1k/0.125W)
      (footprint Resistor_SMD:R_0603_1608Metric_Pad0.98x0.95mm_HandSolder)
      (datasheet ~)
      (libsource (lib Device) (part R) (description Resistor))
      (sheetpath (names /) (tstamps /))
      (tstamp 618A47CE))
    (comp (ref D2)
      (value TXLED)
      (footprint LED_SMD:LED_0603_1608Metric_Pad1.05x0.95mm_HandSolder)
      (datasheet ~)
      (libsource (lib Device) (part LED) (description "Light emitting diode"))
      (sheetpath (names /) (tstamps /))
      (tstamp 61888554))
    (comp (ref D1)
      (value RXLED)
      (footprint LED_SMD:LED_0603_1608Metric_Pad1.05x0.95mm_HandSolder)
      (datasheet ~)
      (libsource (lib Device) (part LED) (description "Light emitting diode"))
      (sheetpath (names /) (tstamps /))
      (tstamp 618763D8))
    (comp (ref R11)
      (value 1k/0.125W)
      (footprint Resistor_SMD:R_0603_1608Metric_Pad0.98x0.95mm_HandSolder)
      (datasheet ~)
      (libsource (lib Device) (part R) (description Resistor))
      (sheetpath (names /) (tstamps /))
      (tstamp 618763D2))
    (comp (ref U3)
      (value ADuM120N)
      (footprint Package_SO:SOIC-8_3.9x4.9mm_P1.27mm)
      (datasheet https://www.analog.com/media/en/technical-documentation/data-sheets/ADuM120N_121N.pdf)
      (libsource (lib Isolator) (part ADuM120N) (description "Dual-channel digital isolator,1.8 to 5V, 150Mbs, 3kV"))
      (sheetpath (names /) (tstamps /))
      (tstamp 61215EB3))
    (comp (ref Y1)
      (value 12MHz,18pF)
      (footprint Crystal:Crystal_SMD_5032-4Pin_5.0x3.2mm)
      (datasheet https://www.tme.eu/Document/ba6ed70d9526495da83bd01b59cec2b4/LFXTAL032878Reel.pdf)
      (fields
        (field (name Url) https://www.tme.eu/ie/en/details/12.00m-cfpx104/smd-quartz-crystals/iqd-frequency-products/lfxtal032878reel/))
      (libsource (lib Device) (part Crystal_GND24_Small) (description "Four pin crystal, GND on pins 2 and 4, small symbol"))
      (sheetpath (names /) (tstamps /))
      (tstamp 6123109B))
    (comp (ref R13)
      (value 50/0.125W)
      (footprint Resistor_SMD:R_0603_1608Metric_Pad0.98x0.95mm_HandSolder)
      (datasheet ~)
      (libsource (lib Device) (part R) (description Resistor))
      (sheetpath (names /) (tstamps /))
      (tstamp 612453DC))
    (comp (ref R10)
      (value 10k/0.125W)
      (footprint Resistor_SMD:R_0603_1608Metric_Pad0.98x0.95mm_HandSolder)
      (datasheet ~)
      (libsource (lib Device) (part R) (description Resistor))
      (sheetpath (names /) (tstamps /))
      (tstamp 6125B1CA))
    (comp (ref R7)
      (value 0)
      (footprint Resistor_SMD:R_0603_1608Metric_Pad0.98x0.95mm_HandSolder)
      (datasheet ~)
      (libsource (lib Device) (part R) (description Resistor))
      (sheetpath (names /) (tstamps /))
      (tstamp 612650F0))
    (comp (ref R8)
      (value 100R)
      (footprint Resistor_SMD:R_0603_1608Metric_Pad0.98x0.95mm_HandSolder)
      (datasheet ~)
      (libsource (lib Device) (part R) (description Resistor))
      (sheetpath (names /) (tstamps /))
      (tstamp 6129B7CD))
    (comp (ref R9)
      (value 100R)
      (footprint Resistor_SMD:R_0603_1608Metric_Pad0.98x0.95mm_HandSolder)
      (datasheet ~)
      (libsource (lib Device) (part R) (description Resistor))
      (sheetpath (names /) (tstamps /))
      (tstamp 6129BCCF))
    (comp (ref J2)
      (value "1.27 pitch 02x07 conn ")
      (footprint Connector_PinHeader_1.27mm:PinHeader_2x07_P1.27mm_Vertical)
      (datasheet ~)
      (libsource (lib Connector_Generic) (part Conn_02x07_Odd_Even) (description "Generic connector, double row, 02x07, odd/even pin numbering scheme (row 1 odd numbers, row 2 even numbers), script generated (kicad-library-utils/schlib/autogen/connector/)"))
      (sheetpath (names /) (tstamps /))
      (tstamp 612B4578)))
  (libparts
    (libpart (lib Connector) (part USB_B)
      (description "USB Type B connector")
      (docs " ~")
      (footprints
        (fp USB*))
      (fields
        (field (name Reference) J)
        (field (name Value) USB_B))
      (pins
        (pin (num 1) (name VBUS) (type power_out))
        (pin (num 2) (name D-) (type BiDi))
        (pin (num 3) (name D+) (type BiDi))
        (pin (num 4) (name GND) (type power_out))
        (pin (num 5) (name Shield) (type passive))))
    (libpart (lib Connector_Generic) (part Conn_02x07_Odd_Even)
      (description "Generic connector, double row, 02x07, odd/even pin numbering scheme (row 1 odd numbers, row 2 even numbers), script generated (kicad-library-utils/schlib/autogen/connector/)")
      (docs ~)
      (footprints
        (fp Connector*:*_2x??_*))
      (fields
        (field (name Reference) J)
        (field (name Value) Conn_02x07_Odd_Even))
      (pins
        (pin (num 1) (name Pin_1) (type passive))
        (pin (num 2) (name Pin_2) (type passive))
        (pin (num 3) (name Pin_3) (type passive))
        (pin (num 4) (name Pin_4) (type passive))
        (pin (num 5) (name Pin_5) (type passive))
        (pin (num 6) (name Pin_6) (type passive))
        (pin (num 7) (name Pin_7) (type passive))
        (pin (num 8) (name Pin_8) (type passive))
        (pin (num 9) (name Pin_9) (type passive))
        (pin (num 10) (name Pin_10) (type passive))
        (pin (num 11) (name Pin_11) (type passive))
        (pin (num 12) (name Pin_12) (type passive))
        (pin (num 13) (name Pin_13) (type passive))
        (pin (num 14) (name Pin_14) (type passive))))
    (libpart (lib Device) (part C)
      (description "Unpolarized capacitor")
      (docs ~)
      (footprints
        (fp C_*))
      (fields
        (field (name Reference) C)
        (field (name Value) C))
      (pins
        (pin (num 1) (name ~) (type passive))
        (pin (num 2) (name ~) (type passive))))
    (libpart (lib Device) (part Crystal_GND24_Small)
      (description "Four pin crystal, GND on pins 2 and 4, small symbol")
      (docs ~)
      (footprints
        (fp Crystal*))
      (fields
        (field (name Reference) Y)
        (field (name Value) Crystal_GND24_Small))
      (pins
        (pin (num 1) (name 1) (type passive))
        (pin (num 2) (name 2) (type passive))
        (pin (num 3) (name 3) (type passive))
        (pin (num 4) (name 4) (type passive))))
    (libpart (lib Device) (part LED)
      (description "Light emitting diode")
      (docs ~)
      (footprints
        (fp LED*)
        (fp LED_SMD:*)
        (fp LED_THT:*))
      (fields
        (field (name Reference) D)
        (field (name Value) LED))
      (pins
        (pin (num 1) (name K) (type passive))
        (pin (num 2) (name A) (type passive))))
    (libpart (lib Device) (part R)
      (description Resistor)
      (docs ~)
      (footprints
        (fp R_*))
      (fields
        (field (name Reference) R)
        (field (name Value) R))
      (pins
        (pin (num 1) (name ~) (type passive))
        (pin (num 2) (name ~) (type passive))))
    (libpart (lib Interface_USB) (part MCP2200-I-SO)
      (aliases
        (alias MCP2200T-I-SO))
      (description "USB 2.0 to UART Protocol Converter with GPIO, SOIC-20")
      (docs http://ww1.microchip.com/downloads/en/DeviceDoc/200022228D.pdf)
      (footprints
        (fp SOIC*20*7.5x12.8mm*P1.27mm*))
      (fields
        (field (name Reference) U)
        (field (name Value) MCP2200-I-SO)
        (field (name Footprint) Package_SO:SOIC-20W_7.5x12.8mm_P1.27mm))
      (pins
        (pin (num 1) (name VDD) (type power_in))
        (pin (num 2) (name OSC1) (type input))
        (pin (num 3) (name OSC2) (type output))
        (pin (num 4) (name RST) (type input))
        (pin (num 5) (name GP7/TxLED) (type BiDi))
        (pin (num 6) (name GP6/RxLED) (type BiDi))
        (pin (num 7) (name GP5) (type BiDi))
        (pin (num 8) (name GP4) (type BiDi))
        (pin (num 9) (name GP3) (type BiDi))
        (pin (num 10) (name TX) (type output))
        (pin (num 11) (name RTS) (type output))
        (pin (num 12) (name RX) (type input))
        (pin (num 13) (name CTS) (type input))
        (pin (num 14) (name GP2) (type BiDi))
        (pin (num 15) (name GP1/USB-CFG) (type BiDi))
        (pin (num 16) (name GP0/SSPND) (type BiDi))
        (pin (num 17) (name V_USB) (type power_in))
        (pin (num 18) (name D-) (type BiDi))
        (pin (num 19) (name D+) (type BiDi))
        (pin (num 20) (name VSS) (type power_in))))
    (libpart (lib Isolator) (part ADuM1201AR)
      (aliases
        (alias ADuM1201BR)
        (alias ADuM1201CR)
        (alias ADuM1201WS)
        (alias ADuM1201WT)
        (alias ADuM1201WU))
      (description "Dual-channel digital isolator, bidirectional communication, 3V/5V level translation, SOIC-8")
      (docs https://www.analog.com/media/en/technical-documentation/data-sheets/ADuM1200_1201.pdf)
      (footprints
        (fp SOIC*3.9x4.9mm*P1.27mm*))
      (fields
        (field (name Reference) U)
        (field (name Value) ADuM1201AR)
        (field (name Footprint) Package_SO:SOIC-8_3.9x4.9mm_P1.27mm))
      (pins
        (pin (num 1) (name VDD1) (type power_in))
        (pin (num 2) (name VOA) (type output))
        (pin (num 3) (name VIB) (type input))
        (pin (num 4) (name GND1) (type power_in))
        (pin (num 5) (name GND2) (type power_in))
        (pin (num 6) (name VOB) (type output))
        (pin (num 7) (name VIA) (type input))
        (pin (num 8) (name VDD2) (type power_in))))
    (libpart (lib Isolator) (part ADuM120N)
      (description "Dual-channel digital isolator,1.8 to 5V, 150Mbs, 3kV")
      (docs https://www.analog.com/media/en/technical-documentation/data-sheets/ADuM120N_121N.pdf)
      (footprints
        (fp SOIC*3.9x4.9mm*P1.27mm*))
      (fields
        (field (name Reference) U)
        (field (name Value) ADuM120N)
        (field (name Footprint) Package_SO:SOIC-8_3.9x4.9mm_P1.27mm))
      (pins
        (pin (num 1) (name VDD1) (type power_in))
        (pin (num 2) (name VIA) (type input))
        (pin (num 3) (name VIB) (type input))
        (pin (num 4) (name GND1) (type power_in))
        (pin (num 5) (name GND2) (type power_in))
        (pin (num 6) (name VOB) (type output))
        (pin (num 7) (name VOA) (type output))
        (pin (num 8) (name VDD2) (type power_in)))))
  (libraries
    (library (logical Connector)
      (uri /usr/share/kicad/library/Connector.lib))
    (library (logical Connector_Generic)
      (uri /usr/share/kicad/library/Connector_Generic.lib))
    (library (logical Device)
      (uri /usr/share/kicad/library/Device.lib))
    (library (logical Interface_USB)
      (uri /usr/share/kicad/library/Interface_USB.lib))
    (library (logical Isolator)
      (uri /usr/share/kicad/library/Isolator.lib)))
  (nets
    (net (code 1) (name "Net-(C3-Pad1)")
      (node (ref C3) (pin 1))
      (node (ref U4) (pin 2))
      (node (ref Y1) (pin 1)))
    (net (code 2) (name "Net-(R13-Pad2)")
      (node (ref R13) (pin 2))
      (node (ref U4) (pin 3)))
    (net (code 3) (name GND_2)
      (node (ref J2) (pin 8))
      (node (ref U3) (pin 5))
      (node (ref U1) (pin 5))
      (node (ref R6) (pin 2))
      (node (ref U2) (pin 5))
      (node (ref J2) (pin 10))
      (node (ref J2) (pin 12))
      (node (ref J2) (pin 14))
      (node (ref J2) (pin 2))
      (node (ref J2) (pin 4))
      (node (ref J2) (pin 6)))
    (net (code 4) (name "Net-(C4-Pad1)")
      (node (ref Y1) (pin 3))
      (node (ref C4) (pin 1))
      (node (ref R13) (pin 1)))
    (net (code 5) (name CTS_1)
      (node (ref U2) (pin 2))
      (node (ref R7) (pin 1)))
    (net (code 6) (name SUSPEND_1)
      (node (ref U4) (pin 16))
      (node (ref U3) (pin 2)))
    (net (code 7) (name "Net-(D2-Pad1)")
      (node (ref U4) (pin 5))
      (node (ref D2) (pin 1)))
    (net (code 8) (name "Net-(D1-Pad1)")
      (node (ref D1) (pin 1))
      (node (ref U4) (pin 6)))
    (net (code 9) (name "Net-(R8-Pad2)")
      (node (ref U3) (pin 7))
      (node (ref R8) (pin 2)))
    (net (code 10) (name "Net-(R9-Pad2)")
      (node (ref U3) (pin 6))
      (node (ref R9) (pin 2)))
    (net (code 11) (name USBCFG_1)
      (node (ref U3) (pin 3))
      (node (ref U4) (pin 15)))
    (net (code 12) (name GNDBUS)
      (node (ref C1) (pin 2))
      (node (ref R10) (pin 2))
      (node (ref C3) (pin 2))
      (node (ref U2) (pin 4))
      (node (ref C4) (pin 2))
      (node (ref U4) (pin 20))
      (node (ref J1) (pin 4))
      (node (ref U1) (pin 4))
      (node (ref C2) (pin 1))
      (node (ref Y1) (pin 2))
      (node (ref Y1) (pin 4))
      (node (ref U3) (pin 4)))
    (net (code 13) (name RX_2)
      (node (ref J2) (pin 5))
      (node (ref R2) (pin 1)))
    (net (code 14) (name TX_2)
      (node (ref R1) (pin 2))
      (node (ref J2) (pin 3)))
    (net (code 15) (name V_2)
      (node (ref U3) (pin 8))
      (node (ref U1) (pin 8))
      (node (ref U2) (pin 8))
      (node (ref J2) (pin 1)))
    (net (code 16) (name USBCFG_2)
      (node (ref R9) (pin 1))
      (node (ref J2) (pin 13)))
    (net (code 17) (name SUSPEND_2)
      (node (ref R8) (pin 1))
      (node (ref J2) (pin 11)))
    (net (code 18) (name CTS_2)
      (node (ref J2) (pin 9))
      (node (ref R5) (pin 1)))
    (net (code 19) (name RTS_2)
      (node (ref R3) (pin 2))
      (node (ref J2) (pin 7)))
    (net (code 20) (name D_M)
      (node (ref U4) (pin 18))
      (node (ref J1) (pin 2)))
    (net (code 21) (name D_P)
      (node (ref J1) (pin 3))
      (node (ref U4) (pin 19)))
    (net (code 22) (name "Net-(R4-Pad1)")
      (node (ref U4) (pin 4))
      (node (ref R4) (pin 1)))
    (net (code 23) (name "Net-(J1-Pad5)")
      (node (ref J1) (pin 5)))
    (net (code 24) (name "Net-(C2-Pad2)")
      (node (ref U4) (pin 17))
      (node (ref C2) (pin 2)))
    (net (code 25) (name RX_1)
      (node (ref U4) (pin 12))
      (node (ref U1) (pin 2)))
    (net (code 26) (name "Net-(U4-Pad7)")
      (node (ref U4) (pin 7)))
    (net (code 27) (name "Net-(U4-Pad8)")
      (node (ref U4) (pin 8)))
    (net (code 28) (name "Net-(U4-Pad9)")
      (node (ref U4) (pin 9)))
    (net (code 29) (name "Net-(U4-Pad14)")
      (node (ref U4) (pin 14)))
    (net (code 30) (name "Net-(R10-Pad1)")
      (node (ref U4) (pin 13))
      (node (ref R7) (pin 2))
      (node (ref R10) (pin 1)))
    (net (code 31) (name RTS_1)
      (node (ref U4) (pin 11))
      (node (ref U2) (pin 3)))
    (net (code 32) (name TX_1)
      (node (ref U1) (pin 3))
      (node (ref U4) (pin 10)))
    (net (code 33) (name "Net-(R1-Pad1)")
      (node (ref R1) (pin 1))
      (node (ref U1) (pin 7)))
    (net (code 34) (name "Net-(R2-Pad2)")
      (node (ref U1) (pin 6))
      (node (ref R2) (pin 2)))
    (net (code 35) (name "Net-(R3-Pad1)")
      (node (ref R3) (pin 1))
      (node (ref R6) (pin 1))
      (node (ref U2) (pin 7)))
    (net (code 36) (name VBUS)
      (node (ref R12) (pin 1))
      (node (ref U1) (pin 1))
      (node (ref C1) (pin 1))
      (node (ref R4) (pin 2))
      (node (ref U2) (pin 1))
      (node (ref U3) (pin 1))
      (node (ref U4) (pin 1))
      (node (ref R11) (pin 1))
      (node (ref J1) (pin 1)))
    (net (code 37) (name "Net-(D1-Pad2)")
      (node (ref R11) (pin 2))
      (node (ref D1) (pin 2)))
    (net (code 38) (name "Net-(R5-Pad2)")
      (node (ref U2) (pin 6))
      (node (ref R5) (pin 2)))
    (net (code 39) (name "Net-(D2-Pad2)")
      (node (ref D2) (pin 2))
      (node (ref R12) (pin 2)))))